…
I notice that a fewer number of trees yields a higher roc_auc. Also, it
seems like minimal node size does not influence accuracy significantly
except in the case of 500 trees it changes greatly. Furthermore, it
seems like 4-6 randomly selected predictors yields the highest results.

8.  

``` r
tune_res2 %>% 
  collect_metrics() %>%
  arrange(desc(mean))
```

    ## # A tibble: 512 x 9
    ##     mtry trees min_n .metric .estimator  mean     n std_err .config             
    ##    <int> <int> <int> <chr>   <chr>      <dbl> <int>   <dbl> <chr>               
    ##  1     3   500     8 roc_auc hand_till  0.735     5 0.00825 Preprocessor1_Model~
    ##  2     4   500     6 roc_auc hand_till  0.735     5 0.00805 Preprocessor1_Model~
    ##  3     4   357     7 roc_auc hand_till  0.734     5 0.00701 Preprocessor1_Model~
    ##  4     3   428     6 roc_auc hand_till  0.734     5 0.00758 Preprocessor1_Model~
    ##  5     3   143     3 roc_auc hand_till  0.734     5 0.0104  Preprocessor1_Model~
    ##  6     6   286     2 roc_auc hand_till  0.733     5 0.00756 Preprocessor1_Model~
    ##  7     4   214     6 roc_auc hand_till  0.733     5 0.00605 Preprocessor1_Model~
    ##  8     8    72    10 roc_auc hand_till  0.733     5 0.00548 Preprocessor1_Model~
    ##  9     5   143     7 roc_auc hand_till  0.733     5 0.00577 Preprocessor1_Model~
    ## 10     5   357     6 roc_auc hand_till  0.733     5 0.00767 Preprocessor1_Model~
    ## # ... with 502 more rows
…
